Brand,Review #,Avg Star,Avg Price,Variety Count,Rating,Price
Nissin,139512,3.9939024390243905,1.8526829268292684,82,Very good,Cheap
Mama,16434,3.581578947368421,2.018947368421053,19,Very good,Expensive
Maruchan,19493,3.8289473684210527,2.0347368421052634,19,Very good,Expensive
Paldo,13527,4.147058823529412,1.915294117647059,17,Very good,Cheap
Nongshim,11153,4.035714285714286,1.9700000000000002,14,Very good,Cheap
Vina Acecook,8359,3.625,2.287,10,Very good,Expensive
Sapporo Ichiban,2850,3.75,2.1820000000000004,10,Very good,Expensive
Maggi,10881,3.9,2.239,10,Very good,Expensive
Myojo,11832,3.625,1.752,10,Very good,Cheap
Vifon,7696,2.725,1.8,10,Good,Cheap
Ottogi,10321,3.7777777777777777,2.1522222222222225,9,Very good,Expensive
Ve Wong,5833,3.15625,1.8537499999999998,8,Good,Cheap
Samyang Foods,12299,3.875,1.9487500000000002,8,Very good,Cheap
Mamee,10150,4.142857142857143,1.6828571428571428,7,Very good,Cheap
Wai Wai,4735,2.4071428571428575,1.9742857142857144,7,Okay,Cheap
Lucky Me!,6467,3.5833333333333335,2.171666666666667,6,Very good,Expensive
Indomie,3350,4.541666666666667,2.188333333333334,6,Very good,Expensive
A-Sha Dry Noodle,9001,3.9166666666666665,1.9883333333333333,6,Very good,Cheap
Samyang,1313,3.65,1.812,5,Very good,Cheap
MyKuali,8355,4.8,1.4259999999999997,5,Very good,Cheap
Ko-Lee,4324,3.0,2.1025,4,Good,Expensive
Master Kong,6097,3.875,1.7625,4,Very good,Cheap
Unif,1546,3.4875,1.6825,4,Good,Cheap
Shirakiku,814,3.5625,2.1675,4,Very good,Expensive
Koka,4665,3.375,1.5749999999999997,4,Good,Cheap
JML,5186,4.0,1.8399999999999999,4,Very good,Cheap
Tokyo Noodle,4808,3.5,1.93,3,Very good,Cheap
Sichuan Baijia,6458,4.166666666666667,1.6133333333333333,3,Very good,Cheap
New Touch,6449,4.666666666666667,2.393333333333333,3,Very good,Expensive
Takamori Kosan,4143,4.166666666666667,2.026666666666667,3,Very good,Expensive
Thai Kitchen,1777,2.8333333333333335,1.7900000000000003,3,Good,Cheap
Wu Mu,593,3.8333333333333335,2.0366666666666666,3,Very good,Expensive
Sau Tao,4832,3.75,1.8533333333333333,3,Very good,Cheap
Shan,4508,3.3333333333333335,1.4400000000000002,3,Good,Cheap
KOKA,7569,4.166666666666667,1.5833333333333333,3,Very good,Cheap
Asian Thai Foods,3437,4.0,1.6000000000000003,3,Very good,Cheap
Amianda,3277,4.0,1.7833333333333332,3,Very good,Cheap
Doll,2194,3.0833333333333335,1.82,3,Good,Cheap
Uni-President,5671,3.3333333333333335,1.8166666666666667,3,Good,Cheap
Saigon Ve Wong,1375,3.3333333333333335,1.8533333333333335,3,Good,Cheap
Mr. Noodles,3276,1.6666666666666667,1.93,3,Okay,Cheap
